{
    "m_SGVersion": 2,
    "m_Type": "UnityEditor.ShaderGraph.GraphData",
    "m_ObjectId": "59f8a971a9ac425e97de9a741d477a1a",
    "m_Properties": [
        {
            "m_Id": "6a66f8bcee294efdb47750d2fd7621ef"
        },
        {
            "m_Id": "b595810d6e0b4b5886bea451a0391869"
        },
        {
            "m_Id": "e0e1a323900241aca6a27467d01dceb7"
        },
        {
            "m_Id": "7171f8ad595a4736bfa276a4815cc0fb"
        },
        {
            "m_Id": "ed81a641a8dd44bdbc30b44e3067834e"
        },
        {
            "m_Id": "a15410c99dac4c29b8ae47b906997a22"
        }
    ],
    "m_Keywords": [],
    "m_Nodes": [
        {
            "m_Id": "a42ee36c9cf94494a85811fc945e8a60"
        },
        {
            "m_Id": "1ae25f6da94e4f8da842b4eb5c3313c0"
        },
        {
            "m_Id": "357446cd7b224ba98cbf908d87fd224e"
        },
        {
            "m_Id": "493f45bc2b5d417ea8cb1816e0426de4"
        },
        {
            "m_Id": "a7e94faf25ee4ee5ae018eaaa3029e0c"
        },
        {
            "m_Id": "cf8c895e0d244295940acbf4dc860828"
        },
        {
            "m_Id": "53065aab7ec64117a4a6205b5601ec44"
        },
        {
            "m_Id": "b07fefc54a1344f39f8e8c1a8f47ce87"
        },
        {
            "m_Id": "6ab8a510dcac45b9a19af83a6b06ea61"
        },
        {
            "m_Id": "cb203023f36b4e74bd81e2be2428c1f2"
        },
        {
            "m_Id": "f7882e0490754c07af9f8c0abf6db016"
        },
        {
            "m_Id": "d626c0188c2d44d3b4443465852e6e34"
        },
        {
            "m_Id": "7d3dd88537b84a75878395551d43245e"
        },
        {
            "m_Id": "09124f88542640899d3dab682d254387"
        },
        {
            "m_Id": "42a5fb45f90f41f1b207072664f64079"
        },
        {
            "m_Id": "e2efa9924f9d415688b77cb4707f4a48"
        },
        {
            "m_Id": "1c09ebfbe2484ba5b413863a2b57dff1"
        },
        {
            "m_Id": "b515b878f9d040c39a7403c4e6b3170f"
        },
        {
            "m_Id": "9307bd9132b441cbba5a89ce26773f14"
        },
        {
            "m_Id": "d2f3998543a4491995c2ec4e168f4e69"
        }
    ],
    "m_GroupDatas": [],
    "m_StickyNoteDatas": [],
    "m_Edges": [
        {
            "m_OutputSlot": {
                "m_Node": {
                    "m_Id": "09124f88542640899d3dab682d254387"
                },
                "m_SlotId": 0
            },
            "m_InputSlot": {
                "m_Node": {
                    "m_Id": "42a5fb45f90f41f1b207072664f64079"
                },
                "m_SlotId": 2
            }
        },
        {
            "m_OutputSlot": {
                "m_Node": {
                    "m_Id": "1c09ebfbe2484ba5b413863a2b57dff1"
                },
                "m_SlotId": 1
            },
            "m_InputSlot": {
                "m_Node": {
                    "m_Id": "d626c0188c2d44d3b4443465852e6e34"
                },
                "m_SlotId": 0
            }
        },
        {
            "m_OutputSlot": {
                "m_Node": {
                    "m_Id": "1c09ebfbe2484ba5b413863a2b57dff1"
                },
                "m_SlotId": 1
            },
            "m_InputSlot": {
                "m_Node": {
                    "m_Id": "e2efa9924f9d415688b77cb4707f4a48"
                },
                "m_SlotId": 2
            }
        },
        {
            "m_OutputSlot": {
                "m_Node": {
                    "m_Id": "42a5fb45f90f41f1b207072664f64079"
                },
                "m_SlotId": 0
            },
            "m_InputSlot": {
                "m_Node": {
                    "m_Id": "d626c0188c2d44d3b4443465852e6e34"
                },
                "m_SlotId": 1
            }
        },
        {
            "m_OutputSlot": {
                "m_Node": {
                    "m_Id": "53065aab7ec64117a4a6205b5601ec44"
                },
                "m_SlotId": 0
            },
            "m_InputSlot": {
                "m_Node": {
                    "m_Id": "e2efa9924f9d415688b77cb4707f4a48"
                },
                "m_SlotId": 1
            }
        },
        {
            "m_OutputSlot": {
                "m_Node": {
                    "m_Id": "6ab8a510dcac45b9a19af83a6b06ea61"
                },
                "m_SlotId": 0
            },
            "m_InputSlot": {
                "m_Node": {
                    "m_Id": "b07fefc54a1344f39f8e8c1a8f47ce87"
                },
                "m_SlotId": 1
            }
        },
        {
            "m_OutputSlot": {
                "m_Node": {
                    "m_Id": "7d3dd88537b84a75878395551d43245e"
                },
                "m_SlotId": 0
            },
            "m_InputSlot": {
                "m_Node": {
                    "m_Id": "42a5fb45f90f41f1b207072664f64079"
                },
                "m_SlotId": 1
            }
        },
        {
            "m_OutputSlot": {
                "m_Node": {
                    "m_Id": "9307bd9132b441cbba5a89ce26773f14"
                },
                "m_SlotId": 0
            },
            "m_InputSlot": {
                "m_Node": {
                    "m_Id": "b515b878f9d040c39a7403c4e6b3170f"
                },
                "m_SlotId": 2
            }
        },
        {
            "m_OutputSlot": {
                "m_Node": {
                    "m_Id": "a7e94faf25ee4ee5ae018eaaa3029e0c"
                },
                "m_SlotId": 1
            },
            "m_InputSlot": {
                "m_Node": {
                    "m_Id": "e2efa9924f9d415688b77cb4707f4a48"
                },
                "m_SlotId": 0
            }
        },
        {
            "m_OutputSlot": {
                "m_Node": {
                    "m_Id": "b07fefc54a1344f39f8e8c1a8f47ce87"
                },
                "m_SlotId": 2
            },
            "m_InputSlot": {
                "m_Node": {
                    "m_Id": "1c09ebfbe2484ba5b413863a2b57dff1"
                },
                "m_SlotId": 0
            }
        },
        {
            "m_OutputSlot": {
                "m_Node": {
                    "m_Id": "b515b878f9d040c39a7403c4e6b3170f"
                },
                "m_SlotId": 0
            },
            "m_InputSlot": {
                "m_Node": {
                    "m_Id": "d626c0188c2d44d3b4443465852e6e34"
                },
                "m_SlotId": 2
            }
        },
        {
            "m_OutputSlot": {
                "m_Node": {
                    "m_Id": "cb203023f36b4e74bd81e2be2428c1f2"
                },
                "m_SlotId": 2
            },
            "m_InputSlot": {
                "m_Node": {
                    "m_Id": "b07fefc54a1344f39f8e8c1a8f47ce87"
                },
                "m_SlotId": 0
            }
        },
        {
            "m_OutputSlot": {
                "m_Node": {
                    "m_Id": "cf8c895e0d244295940acbf4dc860828"
                },
                "m_SlotId": 1
            },
            "m_InputSlot": {
                "m_Node": {
                    "m_Id": "cb203023f36b4e74bd81e2be2428c1f2"
                },
                "m_SlotId": 0
            }
        },
        {
            "m_OutputSlot": {
                "m_Node": {
                    "m_Id": "e2efa9924f9d415688b77cb4707f4a48"
                },
                "m_SlotId": 3
            },
            "m_InputSlot": {
                "m_Node": {
                    "m_Id": "493f45bc2b5d417ea8cb1816e0426de4"
                },
                "m_SlotId": 0
            }
        },
        {
            "m_OutputSlot": {
                "m_Node": {
                    "m_Id": "f7882e0490754c07af9f8c0abf6db016"
                },
                "m_SlotId": 0
            },
            "m_InputSlot": {
                "m_Node": {
                    "m_Id": "cb203023f36b4e74bd81e2be2428c1f2"
                },
                "m_SlotId": 1
            }
        }
    ],
    "m_VertexContext": {
        "m_Position": {
            "x": 302.00006103515627,
            "y": -128.00001525878907
        },
        "m_Blocks": [
            {
                "m_Id": "a42ee36c9cf94494a85811fc945e8a60"
            },
            {
                "m_Id": "1ae25f6da94e4f8da842b4eb5c3313c0"
            },
            {
                "m_Id": "357446cd7b224ba98cbf908d87fd224e"
            }
        ]
    },
    "m_FragmentContext": {
        "m_Position": {
            "x": 322.99993896484377,
            "y": 80.00000762939453
        },
        "m_Blocks": [
            {
                "m_Id": "493f45bc2b5d417ea8cb1816e0426de4"
            },
            {
                "m_Id": "d2f3998543a4491995c2ec4e168f4e69"
            }
        ]
    },
    "m_PreviewData": {
        "serializedMesh": {
            "m_SerializedMesh": "{\"mesh\":{\"fileID\":10202,\"guid\":\"0000000000000000e000000000000000\",\"type\":0}}",
            "m_Guid": ""
        }
    },
    "m_Path": "Shader Graphs",
    "m_ConcretePrecision": 0,
    "m_PreviewMode": 2,
    "m_OutputNode": {
        "m_Id": ""
    },
    "m_ActiveTargets": [
        {
            "m_Id": "afd7a6c747644f18b13ef3ee23177406"
        }
    ]
}

{
    "m_SGVersion": 0,
    "m_Type": "UnityEditor.ShaderGraph.DynamicValueMaterialSlot",
    "m_ObjectId": "0643af679a3948a5a2c2a3103435993b",
    "m_Id": 0,
    "m_DisplayName": "A",
    "m_SlotType": 0,
    "m_Hidden": false,
    "m_ShaderOutputName": "A",
    "m_StageCapability": 3,
    "m_Value": {
        "e00": 0.0,
        "e01": 0.0,
        "e02": 0.0,
        "e03": 0.0,
        "e10": 0.0,
        "e11": 0.0,
        "e12": 0.0,
        "e13": 0.0,
        "e20": 0.0,
        "e21": 0.0,
        "e22": 0.0,
        "e23": 0.0,
        "e30": 0.0,
        "e31": 0.0,
        "e32": 0.0,
        "e33": 0.0
    },
    "m_DefaultValue": {
        "e00": 1.0,
        "e01": 0.0,
        "e02": 0.0,
        "e03": 0.0,
        "e10": 0.0,
        "e11": 1.0,
        "e12": 0.0,
        "e13": 0.0,
        "e20": 0.0,
        "e21": 0.0,
        "e22": 1.0,
        "e23": 0.0,
        "e30": 0.0,
        "e31": 0.0,
        "e32": 0.0,
        "e33": 1.0
    }
}

{
    "m_SGVersion": 0,
    "m_Type": "UnityEditor.ShaderGraph.DynamicVectorMaterialSlot",
    "m_ObjectId": "07a6e5d27e8c4598a7bc7441d6d2d09c",
    "m_Id": 0,
    "m_DisplayName": "A",
    "m_SlotType": 0,
    "m_Hidden": false,
    "m_ShaderOutputName": "A",
    "m_StageCapability": 3,
    "m_Value": {
        "x": 0.0,
        "y": 0.0,
        "z": 0.0,
        "w": 0.0
    },
    "m_DefaultValue": {
        "x": 0.0,
        "y": 0.0,
        "z": 0.0,
        "w": 0.0
    }
}

{
    "m_SGVersion": 0,
    "m_Type": "UnityEditor.ShaderGraph.PropertyNode",
    "m_ObjectId": "09124f88542640899d3dab682d254387",
    "m_Group": {
        "m_Id": ""
    },
    "m_Name": "Property",
    "m_DrawState": {
        "m_Expanded": true,
        "m_Position": {
            "serializedVersion": "2",
            "x": -881.0000610351563,
            "y": 277.0000305175781,
            "width": 130.0,
            "height": 34.0
        }
    },
    "m_Slots": [
        {
            "m_Id": "26849bfcac9941e28e2945204f8210b8"
        }
    ],
    "synonyms": [],
    "m_Precision": 0,
    "m_PreviewExpanded": true,
    "m_PreviewMode": 0,
    "m_CustomColors": {
        "m_SerializableColors": []
    },
    "m_Property": {
        "m_Id": "ed81a641a8dd44bdbc30b44e3067834e"
    }
}

{
    "m_SGVersion": 0,
    "m_Type": "UnityEditor.ShaderGraph.DynamicValueMaterialSlot",
    "m_ObjectId": "0a7a098b9f1b4ae39cde5ce1303ab2f6",
    "m_Id": 1,
    "m_DisplayName": "B",
    "m_SlotType": 0,
    "m_Hidden": false,
    "m_ShaderOutputName": "B",
    "m_StageCapability": 3,
    "m_Value": {
        "e00": 3.0,
        "e01": 2.0,
        "e02": 2.0,
        "e03": 2.0,
        "e10": 2.0,
        "e11": 2.0,
        "e12": 2.0,
        "e13": 2.0,
        "e20": 2.0,
        "e21": 2.0,
        "e22": 2.0,
        "e23": 2.0,
        "e30": 2.0,
        "e31": 2.0,
        "e32": 2.0,
        "e33": 2.0
    },
    "m_DefaultValue": {
        "e00": 1.0,
        "e01": 0.0,
        "e02": 0.0,
        "e03": 0.0,
        "e10": 0.0,
        "e11": 1.0,
        "e12": 0.0,
        "e13": 0.0,
        "e20": 0.0,
        "e21": 0.0,
        "e22": 1.0,
        "e23": 0.0,
        "e30": 0.0,
        "e31": 0.0,
        "e32": 0.0,
        "e33": 1.0
    }
}

{
    "m_SGVersion": 0,
    "m_Type": "UnityEditor.ShaderGraph.DynamicVectorMaterialSlot",
    "m_ObjectId": "11f1d87b8e7a4fbcb9712573c8055ae0",
    "m_Id": 1,
    "m_DisplayName": "B",
    "m_SlotType": 0,
    "m_Hidden": false,
    "m_ShaderOutputName": "B",
    "m_StageCapability": 3,
    "m_Value": {
        "x": 1.0,
        "y": 1.0,
        "z": 1.0,
        "w": 1.0
    },
    "m_DefaultValue": {
        "x": 0.0,
        "y": 0.0,
        "z": 0.0,
        "w": 0.0
    }
}

{
    "m_SGVersion": 0,
    "m_Type": "UnityEditor.ShaderGraph.Vector2MaterialSlot",
    "m_ObjectId": "12b0f58511274f7d905ac38bf2d10c4a",
    "m_Id": 2,
    "m_DisplayName": "Out Min Max",
    "m_SlotType": 0,
    "m_Hidden": false,
    "m_ShaderOutputName": "OutMinMax",
    "m_StageCapability": 3,
    "m_Value": {
        "x": 0.0,
        "y": 1.0
    },
    "m_DefaultValue": {
        "x": 0.0,
        "y": 0.0
    },
    "m_Labels": []
}

{
    "m_SGVersion": 0,
    "m_Type": "UnityEditor.ShaderGraph.BlockNode",
    "m_ObjectId": "1ae25f6da94e4f8da842b4eb5c3313c0",
    "m_Group": {
        "m_Id": ""
    },
    "m_Name": "VertexDescription.Normal",
    "m_DrawState": {
        "m_Expanded": true,
        "m_Position": {
            "serializedVersion": "2",
            "x": 0.0,
            "y": 0.0,
            "width": 0.0,
            "height": 0.0
        }
    },
    "m_Slots": [
        {
            "m_Id": "3a1a72acdcb344d7995310961afc57aa"
        }
    ],
    "synonyms": [],
    "m_Precision": 0,
    "m_PreviewExpanded": true,
    "m_PreviewMode": 0,
    "m_CustomColors": {
        "m_SerializableColors": []
    },
    "m_SerializedDescriptor": "VertexDescription.Normal"
}

{
    "m_SGVersion": 0,
    "m_Type": "UnityEditor.ShaderGraph.SaturateNode",
    "m_ObjectId": "1c09ebfbe2484ba5b413863a2b57dff1",
    "m_Group": {
        "m_Id": ""
    },
    "m_Name": "Saturate",
    "m_DrawState": {
        "m_Expanded": true,
        "m_Position": {
            "serializedVersion": "2",
            "x": -650.0,
            "y": -75.0,
            "width": 128.0,
            "height": 94.0
        }
    },
    "m_Slots": [
        {
            "m_Id": "533f03b1ca3d47f5a2ced538bc653695"
        },
        {
            "m_Id": "a61ebd70a28d45439d962a42ee7028ab"
        }
    ],
    "synonyms": [],
    "m_Precision": 0,
    "m_PreviewExpanded": false,
    "m_PreviewMode": 0,
    "m_CustomColors": {
        "m_SerializableColors": []
    }
}

{
    "m_SGVersion": 0,
    "m_Type": "UnityEditor.ShaderGraph.Vector1MaterialSlot",
    "m_ObjectId": "1c9464d562fc4310b053930ec2ac103c",
    "m_Id": 1,
    "m_DisplayName": "X",
    "m_SlotType": 0,
    "m_Hidden": false,
    "m_ShaderOutputName": "X",
    "m_StageCapability": 3,
    "m_Value": 0.0,
    "m_DefaultValue": 0.0,
    "m_Labels": []
}

{
    "m_SGVersion": 0,
    "m_Type": "UnityEditor.ShaderGraph.Vector3MaterialSlot",
    "m_ObjectId": "1e88dd4217f54277bf404aff6afe5cbf",
    "m_Id": 1,
    "m_DisplayName": "Out",
    "m_SlotType": 1,
    "m_Hidden": false,
    "m_ShaderOutputName": "Out",
    "m_StageCapability": 2,
    "m_Value": {
        "x": 0.0,
        "y": 0.0,
        "z": 0.0
    },
    "m_DefaultValue": {
        "x": 0.0,
        "y": 0.0,
        "z": 0.0
    },
    "m_Labels": []
}

{
    "m_SGVersion": 0,
    "m_Type": "UnityEditor.ShaderGraph.Vector1MaterialSlot",
    "m_ObjectId": "26849bfcac9941e28e2945204f8210b8",
    "m_Id": 0,
    "m_DisplayName": "MaxRange",
    "m_SlotType": 1,
    "m_Hidden": false,
    "m_ShaderOutputName": "Out",
    "m_StageCapability": 3,
    "m_Value": 0.0,
    "m_DefaultValue": 0.0,
    "m_Labels": []
}

{
    "m_SGVersion": 0,
    "m_Type": "UnityEditor.ShaderGraph.DynamicVectorMaterialSlot",
    "m_ObjectId": "2833827f77334025905bef3cb1eba6f4",
    "m_Id": 1,
    "m_DisplayName": "B",
    "m_SlotType": 0,
    "m_Hidden": false,
    "m_ShaderOutputName": "B",
    "m_StageCapability": 3,
    "m_Value": {
        "x": 1.899999976158142,
        "y": 2.0,
        "z": 2.0,
        "w": 2.0
    },
    "m_DefaultValue": {
        "x": 0.0,
        "y": 0.0,
        "z": 0.0,
        "w": 0.0
    }
}

{
    "m_SGVersion": 0,
    "m_Type": "UnityEditor.ShaderGraph.BlockNode",
    "m_ObjectId": "357446cd7b224ba98cbf908d87fd224e",
    "m_Group": {
        "m_Id": ""
    },
    "m_Name": "VertexDescription.Tangent",
    "m_DrawState": {
        "m_Expanded": true,
        "m_Position": {
            "serializedVersion": "2",
            "x": 0.0,
            "y": 0.0,
            "width": 0.0,
            "height": 0.0
        }
    },
    "m_Slots": [
        {
            "m_Id": "9958846c7d17472f88001cdc448b2ec9"
        }
    ],
    "synonyms": [],
    "m_Precision": 0,
    "m_PreviewExpanded": true,
    "m_PreviewMode": 0,
    "m_CustomColors": {
        "m_SerializableColors": []
    },
    "m_SerializedDescriptor": "VertexDescription.Tangent"
}

{
    "m_SGVersion": 0,
    "m_Type": "UnityEditor.ShaderGraph.ScreenPositionMaterialSlot",
    "m_ObjectId": "37e33d7e1c81440eae80975352a93305",
    "m_Id": 0,
    "m_DisplayName": "UV",
    "m_SlotType": 0,
    "m_Hidden": false,
    "m_ShaderOutputName": "UV",
    "m_StageCapability": 3,
    "m_Value": {
        "x": 0.0,
        "y": 0.0,
        "z": 0.0,
        "w": 0.0
    },
    "m_DefaultValue": {
        "x": 0.0,
        "y": 0.0,
        "z": 0.0,
        "w": 0.0
    },
    "m_Labels": [],
    "m_ScreenSpaceType": 0
}

{
    "m_SGVersion": 0,
    "m_Type": "UnityEditor.ShaderGraph.NormalMaterialSlot",
    "m_ObjectId": "3a1a72acdcb344d7995310961afc57aa",
    "m_Id": 0,
    "m_DisplayName": "Normal",
    "m_SlotType": 0,
    "m_Hidden": false,
    "m_ShaderOutputName": "Normal",
    "m_StageCapability": 1,
    "m_Value": {
        "x": 0.0,
        "y": 0.0,
        "z": 0.0
    },
    "m_DefaultValue": {
        "x": 0.0,
        "y": 0.0,
        "z": 0.0
    },
    "m_Labels": [],
    "m_Space": 0
}

{
    "m_SGVersion": 0,
    "m_Type": "UnityEditor.ShaderGraph.Vector2Node",
    "m_ObjectId": "42a5fb45f90f41f1b207072664f64079",
    "m_Group": {
        "m_Id": ""
    },
    "m_Name": "Vector 2",
    "m_DrawState": {
        "m_Expanded": true,
        "m_Position": {
            "serializedVersion": "2",
            "x": -625.0000610351563,
            "y": 75.0,
            "width": 128.0,
            "height": 101.0
        }
    },
    "m_Slots": [
        {
            "m_Id": "1c9464d562fc4310b053930ec2ac103c"
        },
        {
            "m_Id": "53a8fd898ff44c00ae45a2cca75ee24b"
        },
        {
            "m_Id": "cd95a0215a8f4270a1a43ca04c3832ee"
        }
    ],
    "synonyms": [],
    "m_Precision": 0,
    "m_PreviewExpanded": true,
    "m_PreviewMode": 0,
    "m_CustomColors": {
        "m_SerializableColors": []
    },
    "m_Value": {
        "x": 0.0,
        "y": 0.0
    }
}

{
    "m_SGVersion": 0,
    "m_Type": "UnityEditor.ShaderGraph.BlockNode",
    "m_ObjectId": "493f45bc2b5d417ea8cb1816e0426de4",
    "m_Group": {
        "m_Id": ""
    },
    "m_Name": "SurfaceDescription.BaseColor",
    "m_DrawState": {
        "m_Expanded": true,
        "m_Position": {
            "serializedVersion": "2",
            "x": 0.0,
            "y": 0.0,
            "width": 0.0,
            "height": 0.0
        }
    },
    "m_Slots": [
        {
            "m_Id": "6bccf482798346beb5971c2f58821b72"
        }
    ],
    "synonyms": [],
    "m_Precision": 0,
    "m_PreviewExpanded": true,
    "m_PreviewMode": 0,
    "m_CustomColors": {
        "m_SerializableColors": []
    },
    "m_SerializedDescriptor": "SurfaceDescription.BaseColor"
}

{
    "m_SGVersion": 0,
    "m_Type": "UnityEditor.ShaderGraph.PropertyNode",
    "m_ObjectId": "53065aab7ec64117a4a6205b5601ec44",
    "m_Group": {
        "m_Id": ""
    },
    "m_Name": "Property",
    "m_DrawState": {
        "m_Expanded": true,
        "m_Position": {
            "serializedVersion": "2",
            "x": -390.0,
            "y": -82.00001525878906,
            "width": 107.0,
            "height": 34.0
        }
    },
    "m_Slots": [
        {
            "m_Id": "b30c9558782948cbbb934be9dedf24c2"
        }
    ],
    "synonyms": [],
    "m_Precision": 0,
    "m_PreviewExpanded": true,
    "m_PreviewMode": 0,
    "m_CustomColors": {
        "m_SerializableColors": []
    },
    "m_Property": {
        "m_Id": "6a66f8bcee294efdb47750d2fd7621ef"
    }
}

{
    "m_SGVersion": 0,
    "m_Type": "UnityEditor.ShaderGraph.DynamicVectorMaterialSlot",
    "m_ObjectId": "533f03b1ca3d47f5a2ced538bc653695",
    "m_Id": 0,
    "m_DisplayName": "In",
    "m_SlotType": 0,
    "m_Hidden": false,
    "m_ShaderOutputName": "In",
    "m_StageCapability": 3,
    "m_Value": {
        "x": 0.0,
        "y": 0.0,
        "z": 0.0,
        "w": 0.0
    },
    "m_DefaultValue": {
        "x": 0.0,
        "y": 0.0,
        "z": 0.0,
        "w": 0.0
    }
}

{
    "m_SGVersion": 0,
    "m_Type": "UnityEditor.ShaderGraph.Vector1MaterialSlot",
    "m_ObjectId": "53a8fd898ff44c00ae45a2cca75ee24b",
    "m_Id": 2,
    "m_DisplayName": "Y",
    "m_SlotType": 0,
    "m_Hidden": false,
    "m_ShaderOutputName": "Y",
    "m_StageCapability": 3,
    "m_Value": 0.0,
    "m_DefaultValue": 0.0,
    "m_Labels": [
        "Y"
    ]
}

{
    "m_SGVersion": 0,
    "m_Type": "UnityEditor.ShaderGraph.Vector1MaterialSlot",
    "m_ObjectId": "5e69469b4f89425dbf84584c8c79c983",
    "m_Id": 0,
    "m_DisplayName": "Influence",
    "m_SlotType": 1,
    "m_Hidden": false,
    "m_ShaderOutputName": "Out",
    "m_StageCapability": 3,
    "m_Value": 0.0,
    "m_DefaultValue": 0.0,
    "m_Labels": []
}

{
    "m_SGVersion": 0,
    "m_Type": "UnityEditor.ShaderGraph.Vector1MaterialSlot",
    "m_ObjectId": "65e855b24ea04c469bf4574e8dc21a76",
    "m_Id": 1,
    "m_DisplayName": "X",
    "m_SlotType": 0,
    "m_Hidden": false,
    "m_ShaderOutputName": "X",
    "m_StageCapability": 3,
    "m_Value": 0.0,
    "m_DefaultValue": 0.0,
    "m_Labels": []
}

{
    "m_SGVersion": 3,
    "m_Type": "UnityEditor.ShaderGraph.Internal.ColorShaderProperty",
    "m_ObjectId": "6a66f8bcee294efdb47750d2fd7621ef",
    "m_Guid": {
        "m_GuidSerialized": "a6a6e848-89d2-4292-983f-c8cdb45a838c"
    },
    "m_Name": "Color",
    "m_DefaultRefNameVersion": 1,
    "m_RefNameGeneratedByDisplayName": "Color",
    "m_DefaultReferenceName": "_Color",
    "m_OverrideReferenceName": "",
    "m_GeneratePropertyBlock": true,
    "m_Precision": 0,
    "overrideHLSLDeclaration": false,
    "hlslDeclarationOverride": 0,
    "m_Hidden": false,
    "m_Value": {
        "r": 0.0025010108947753908,
        "g": 0.0,
        "b": 1.0,
        "a": 0.0
    },
    "m_ColorMode": 0
}

{
    "m_SGVersion": 0,
    "m_Type": "UnityEditor.ShaderGraph.PropertyNode",
    "m_ObjectId": "6ab8a510dcac45b9a19af83a6b06ea61",
    "m_Group": {
        "m_Id": ""
    },
    "m_Name": "Property",
    "m_DrawState": {
        "m_Expanded": true,
        "m_Position": {
            "serializedVersion": "2",
            "x": -825.0000610351563,
            "y": 177.00001525878907,
            "width": 109.0,
            "height": 34.0
        }
    },
    "m_Slots": [
        {
            "m_Id": "ba80d5939f48410c9e4cb8b4004fc51a"
        }
    ],
    "synonyms": [],
    "m_Precision": 0,
    "m_PreviewExpanded": true,
    "m_PreviewMode": 0,
    "m_CustomColors": {
        "m_SerializableColors": []
    },
    "m_Property": {
        "m_Id": "b595810d6e0b4b5886bea451a0391869"
    }
}

{
    "m_SGVersion": 0,
    "m_Type": "UnityEditor.ShaderGraph.ColorRGBMaterialSlot",
    "m_ObjectId": "6bccf482798346beb5971c2f58821b72",
    "m_Id": 0,
    "m_DisplayName": "Base Color",
    "m_SlotType": 0,
    "m_Hidden": false,
    "m_ShaderOutputName": "BaseColor",
    "m_StageCapability": 2,
    "m_Value": {
        "x": 0.5,
        "y": 0.5,
        "z": 0.5
    },
    "m_DefaultValue": {
        "x": 0.0,
        "y": 0.0,
        "z": 0.0
    },
    "m_Labels": [],
    "m_ColorMode": 0,
    "m_DefaultColor": {
        "r": 0.5,
        "g": 0.5,
        "b": 0.5,
        "a": 1.0
    }
}

{
    "m_SGVersion": 0,
    "m_Type": "UnityEditor.ShaderGraph.Vector1MaterialSlot",
    "m_ObjectId": "70014da10f524f3fa31a390e5aa3097f",
    "m_Id": 0,
    "m_DisplayName": "MinRange",
    "m_SlotType": 1,
    "m_Hidden": false,
    "m_ShaderOutputName": "Out",
    "m_StageCapability": 3,
    "m_Value": 0.0,
    "m_DefaultValue": 0.0,
    "m_Labels": []
}

{
    "m_SGVersion": 1,
    "m_Type": "UnityEditor.ShaderGraph.Internal.Vector1ShaderProperty",
    "m_ObjectId": "7171f8ad595a4736bfa276a4815cc0fb",
    "m_Guid": {
        "m_GuidSerialized": "e796b22d-be45-47ad-b118-8042ba4e476f"
    },
    "m_Name": "MinRange",
    "m_DefaultRefNameVersion": 1,
    "m_RefNameGeneratedByDisplayName": "MinRange",
    "m_DefaultReferenceName": "MinRange",
    "m_OverrideReferenceName": "",
    "m_GeneratePropertyBlock": true,
    "m_Precision": 0,
    "overrideHLSLDeclaration": false,
    "hlslDeclarationOverride": 0,
    "m_Hidden": false,
    "m_Value": 0.0,
    "m_FloatType": 0,
    "m_RangeValues": {
        "x": 0.0,
        "y": 1.0
    }
}

{
    "m_SGVersion": 0,
    "m_Type": "UnityEditor.ShaderGraph.PropertyNode",
    "m_ObjectId": "7d3dd88537b84a75878395551d43245e",
    "m_Group": {
        "m_Id": ""
    },
    "m_Name": "Property",
    "m_DrawState": {
        "m_Expanded": true,
        "m_Position": {
            "serializedVersion": "2",
            "x": -880.0000610351563,
            "y": 237.0,
            "width": 127.0,
            "height": 34.0
        }
    },
    "m_Slots": [
        {
            "m_Id": "70014da10f524f3fa31a390e5aa3097f"
        }
    ],
    "synonyms": [],
    "m_Precision": 0,
    "m_PreviewExpanded": true,
    "m_PreviewMode": 0,
    "m_CustomColors": {
        "m_SerializableColors": []
    },
    "m_Property": {
        "m_Id": "7171f8ad595a4736bfa276a4815cc0fb"
    }
}

{
    "m_SGVersion": 0,
    "m_Type": "UnityEditor.ShaderGraph.Vector1MaterialSlot",
    "m_ObjectId": "83d3990d610f4c9dba448cc28fdec0f6",
    "m_Id": 2,
    "m_DisplayName": "Y",
    "m_SlotType": 0,
    "m_Hidden": false,
    "m_ShaderOutputName": "Y",
    "m_StageCapability": 3,
    "m_Value": 0.0,
    "m_DefaultValue": 0.0,
    "m_Labels": [
        "Y"
    ]
}

{
    "m_SGVersion": 0,
    "m_Type": "UnityEditor.ShaderGraph.Vector1MaterialSlot",
    "m_ObjectId": "84b94b0123c94806aeeaa1b890d2ffe3",
    "m_Id": 0,
    "m_DisplayName": "Multiply",
    "m_SlotType": 1,
    "m_Hidden": false,
    "m_ShaderOutputName": "Out",
    "m_StageCapability": 3,
    "m_Value": 0.0,
    "m_DefaultValue": 0.0,
    "m_Labels": []
}

{
    "m_SGVersion": 0,
    "m_Type": "UnityEditor.ShaderGraph.PropertyNode",
    "m_ObjectId": "9307bd9132b441cbba5a89ce26773f14",
    "m_Group": {
        "m_Id": ""
    },
    "m_Name": "Property",
    "m_DrawState": {
        "m_Expanded": true,
        "m_Position": {
            "serializedVersion": "2",
            "x": -763.0001220703125,
            "y": 322.0000305175781,
            "width": 122.00000762939453,
            "height": 34.0
        }
    },
    "m_Slots": [
        {
            "m_Id": "5e69469b4f89425dbf84584c8c79c983"
        }
    ],
    "synonyms": [],
    "m_Precision": 0,
    "m_PreviewExpanded": true,
    "m_PreviewMode": 0,
    "m_CustomColors": {
        "m_SerializableColors": []
    },
    "m_Property": {
        "m_Id": "a15410c99dac4c29b8ae47b906997a22"
    }
}

{
    "m_SGVersion": 0,
    "m_Type": "UnityEditor.ShaderGraph.TangentMaterialSlot",
    "m_ObjectId": "9958846c7d17472f88001cdc448b2ec9",
    "m_Id": 0,
    "m_DisplayName": "Tangent",
    "m_SlotType": 0,
    "m_Hidden": false,
    "m_ShaderOutputName": "Tangent",
    "m_StageCapability": 1,
    "m_Value": {
        "x": 0.0,
        "y": 0.0,
        "z": 0.0
    },
    "m_DefaultValue": {
        "x": 0.0,
        "y": 0.0,
        "z": 0.0
    },
    "m_Labels": [],
    "m_Space": 0
}

{
    "m_SGVersion": 1,
    "m_Type": "UnityEditor.ShaderGraph.Internal.Vector1ShaderProperty",
    "m_ObjectId": "a15410c99dac4c29b8ae47b906997a22",
    "m_Guid": {
        "m_GuidSerialized": "b8dc1d5b-1f12-4750-8e8f-8dba19c84e38"
    },
    "m_Name": "Influence",
    "m_DefaultRefNameVersion": 1,
    "m_RefNameGeneratedByDisplayName": "Influence",
    "m_DefaultReferenceName": "Influence",
    "m_OverrideReferenceName": "",
    "m_GeneratePropertyBlock": true,
    "m_Precision": 0,
    "overrideHLSLDeclaration": false,
    "hlslDeclarationOverride": 0,
    "m_Hidden": false,
    "m_Value": 0.0,
    "m_FloatType": 0,
    "m_RangeValues": {
        "x": 0.0,
        "y": 1.0
    }
}

{
    "m_SGVersion": 0,
    "m_Type": "UnityEditor.ShaderGraph.BlockNode",
    "m_ObjectId": "a42ee36c9cf94494a85811fc945e8a60",
    "m_Group": {
        "m_Id": ""
    },
    "m_Name": "VertexDescription.Position",
    "m_DrawState": {
        "m_Expanded": true,
        "m_Position": {
            "serializedVersion": "2",
            "x": 0.0,
            "y": 0.0,
            "width": 0.0,
            "height": 0.0
        }
    },
    "m_Slots": [
        {
            "m_Id": "edebf2655bf14301bc36bcfb571aeb72"
        }
    ],
    "synonyms": [],
    "m_Precision": 0,
    "m_PreviewExpanded": true,
    "m_PreviewMode": 0,
    "m_CustomColors": {
        "m_SerializableColors": []
    },
    "m_SerializedDescriptor": "VertexDescription.Position"
}

{
    "m_SGVersion": 0,
    "m_Type": "UnityEditor.ShaderGraph.Vector1MaterialSlot",
    "m_ObjectId": "a4d64413ced64d3f88ac93a17e18b6a6",
    "m_Id": 1,
    "m_DisplayName": "Out",
    "m_SlotType": 1,
    "m_Hidden": false,
    "m_ShaderOutputName": "Out",
    "m_StageCapability": 2,
    "m_Value": 0.0,
    "m_DefaultValue": 0.0,
    "m_Labels": []
}

{
    "m_SGVersion": 0,
    "m_Type": "UnityEditor.ShaderGraph.DynamicVectorMaterialSlot",
    "m_ObjectId": "a61ebd70a28d45439d962a42ee7028ab",
    "m_Id": 1,
    "m_DisplayName": "Out",
    "m_SlotType": 1,
    "m_Hidden": false,
    "m_ShaderOutputName": "Out",
    "m_StageCapability": 3,
    "m_Value": {
        "x": 0.0,
        "y": 0.0,
        "z": 0.0,
        "w": 0.0
    },
    "m_DefaultValue": {
        "x": 0.0,
        "y": 0.0,
        "z": 0.0,
        "w": 0.0
    }
}

{
    "m_SGVersion": 0,
    "m_Type": "UnityEditor.ShaderGraph.DynamicVectorMaterialSlot",
    "m_ObjectId": "a7de9c09a47f43dbb207971bfb90a0bb",
    "m_Id": 3,
    "m_DisplayName": "Out",
    "m_SlotType": 1,
    "m_Hidden": false,
    "m_ShaderOutputName": "Out",
    "m_StageCapability": 3,
    "m_Value": {
        "x": 0.0,
        "y": 0.0,
        "z": 0.0,
        "w": 0.0
    },
    "m_DefaultValue": {
        "x": 0.0,
        "y": 0.0,
        "z": 0.0,
        "w": 0.0
    }
}

{
    "m_SGVersion": 0,
    "m_Type": "UnityEditor.ShaderGraph.SceneColorNode",
    "m_ObjectId": "a7e94faf25ee4ee5ae018eaaa3029e0c",
    "m_Group": {
        "m_Id": ""
    },
    "m_Name": "Scene Color",
    "m_DrawState": {
        "m_Expanded": true,
        "m_Position": {
            "serializedVersion": "2",
            "x": -395.0000305175781,
            "y": -243.00001525878907,
            "width": 138.0,
            "height": 77.00000762939453
        }
    },
    "m_Slots": [
        {
            "m_Id": "dcc97bf806614aff8e29a6b67e3bfdd1"
        },
        {
            "m_Id": "1e88dd4217f54277bf404aff6afe5cbf"
        }
    ],
    "synonyms": [],
    "m_Precision": 0,
    "m_PreviewExpanded": true,
    "m_PreviewMode": 0,
    "m_CustomColors": {
        "m_SerializableColors": []
    }
}

{
    "m_SGVersion": 0,
    "m_Type": "UnityEditor.ShaderGraph.Vector1MaterialSlot",
    "m_ObjectId": "ab917efe57454735b56b992332ed9491",
    "m_Id": 0,
    "m_DisplayName": "Alpha",
    "m_SlotType": 0,
    "m_Hidden": false,
    "m_ShaderOutputName": "Alpha",
    "m_StageCapability": 2,
    "m_Value": 1.0,
    "m_DefaultValue": 1.0,
    "m_Labels": []
}

{
    "m_SGVersion": 0,
    "m_Type": "UnityEditor.Rendering.Universal.ShaderGraph.UniversalTarget",
    "m_ObjectId": "afd7a6c747644f18b13ef3ee23177406",
    "m_ActiveSubTarget": {
        "m_Id": "cf02fa6925a9411ba17aba089a75faf9"
    },
    "m_SurfaceType": 1,
    "m_AlphaMode": 1,
    "m_TwoSided": false,
    "m_AlphaClip": false,
    "m_CustomEditorGUI": ""
}

{
    "m_SGVersion": 0,
    "m_Type": "UnityEditor.ShaderGraph.PowerNode",
    "m_ObjectId": "b07fefc54a1344f39f8e8c1a8f47ce87",
    "m_Group": {
        "m_Id": ""
    },
    "m_Name": "Power",
    "m_DrawState": {
        "m_Expanded": true,
        "m_Position": {
            "serializedVersion": "2",
            "x": -837.0,
            "y": 6.000006675720215,
            "width": 126.0,
            "height": 118.0
        }
    },
    "m_Slots": [
        {
            "m_Id": "07a6e5d27e8c4598a7bc7441d6d2d09c"
        },
        {
            "m_Id": "2833827f77334025905bef3cb1eba6f4"
        },
        {
            "m_Id": "b971a97c7ad94ead8c248c58dd63a47e"
        }
    ],
    "synonyms": [],
    "m_Precision": 0,
    "m_PreviewExpanded": false,
    "m_PreviewMode": 0,
    "m_CustomColors": {
        "m_SerializableColors": []
    }
}

{
    "m_SGVersion": 0,
    "m_Type": "UnityEditor.ShaderGraph.Vector4MaterialSlot",
    "m_ObjectId": "b30c9558782948cbbb934be9dedf24c2",
    "m_Id": 0,
    "m_DisplayName": "Color",
    "m_SlotType": 1,
    "m_Hidden": false,
    "m_ShaderOutputName": "Out",
    "m_StageCapability": 3,
    "m_Value": {
        "x": 0.0,
        "y": 0.0,
        "z": 0.0,
        "w": 0.0
    },
    "m_DefaultValue": {
        "x": 0.0,
        "y": 0.0,
        "z": 0.0,
        "w": 0.0
    },
    "m_Labels": []
}

{
    "m_SGVersion": 0,
    "m_Type": "UnityEditor.ShaderGraph.Vector2Node",
    "m_ObjectId": "b515b878f9d040c39a7403c4e6b3170f",
    "m_Group": {
        "m_Id": ""
    },
    "m_Name": "Vector 2",
    "m_DrawState": {
        "m_Expanded": true,
        "m_Position": {
            "serializedVersion": "2",
            "x": -622.0000610351563,
            "y": 201.0,
            "width": 128.0,
            "height": 101.0
        }
    },
    "m_Slots": [
        {
            "m_Id": "65e855b24ea04c469bf4574e8dc21a76"
        },
        {
            "m_Id": "83d3990d610f4c9dba448cc28fdec0f6"
        },
        {
            "m_Id": "f713da5c60cf49129b3f7ef527bb7002"
        }
    ],
    "synonyms": [],
    "m_Precision": 0,
    "m_PreviewExpanded": true,
    "m_PreviewMode": 0,
    "m_CustomColors": {
        "m_SerializableColors": []
    },
    "m_Value": {
        "x": 0.0,
        "y": 0.0
    }
}

{
    "m_SGVersion": 1,
    "m_Type": "UnityEditor.ShaderGraph.Internal.Vector1ShaderProperty",
    "m_ObjectId": "b595810d6e0b4b5886bea451a0391869",
    "m_Guid": {
        "m_GuidSerialized": "a652d0ab-fee4-46e5-b411-bafd29e23b9c"
    },
    "m_Name": "Power",
    "m_DefaultRefNameVersion": 1,
    "m_RefNameGeneratedByDisplayName": "Power",
    "m_DefaultReferenceName": "Power",
    "m_OverrideReferenceName": "",
    "m_GeneratePropertyBlock": true,
    "m_Precision": 0,
    "overrideHLSLDeclaration": false,
    "hlslDeclarationOverride": 0,
    "m_Hidden": false,
    "m_Value": 0.0,
    "m_FloatType": 0,
    "m_RangeValues": {
        "x": 0.0,
        "y": 1.0
    }
}

{
    "m_SGVersion": 0,
    "m_Type": "UnityEditor.ShaderGraph.DynamicVectorMaterialSlot",
    "m_ObjectId": "b971a97c7ad94ead8c248c58dd63a47e",
    "m_Id": 2,
    "m_DisplayName": "Out",
    "m_SlotType": 1,
    "m_Hidden": false,
    "m_ShaderOutputName": "Out",
    "m_StageCapability": 3,
    "m_Value": {
        "x": 0.0,
        "y": 0.0,
        "z": 0.0,
        "w": 0.0
    },
    "m_DefaultValue": {
        "x": 0.0,
        "y": 0.0,
        "z": 0.0,
        "w": 0.0
    }
}

{
    "m_SGVersion": 0,
    "m_Type": "UnityEditor.ShaderGraph.Vector1MaterialSlot",
    "m_ObjectId": "ba80d5939f48410c9e4cb8b4004fc51a",
    "m_Id": 0,
    "m_DisplayName": "Power",
    "m_SlotType": 1,
    "m_Hidden": false,
    "m_ShaderOutputName": "Out",
    "m_StageCapability": 3,
    "m_Value": 0.0,
    "m_DefaultValue": 0.0,
    "m_Labels": []
}

{
    "m_SGVersion": 0,
    "m_Type": "UnityEditor.ShaderGraph.DynamicVectorMaterialSlot",
    "m_ObjectId": "c1eeb35450b445f7acb6ed7fffd85bd9",
    "m_Id": 3,
    "m_DisplayName": "Out",
    "m_SlotType": 1,
    "m_Hidden": false,
    "m_ShaderOutputName": "Out",
    "m_StageCapability": 3,
    "m_Value": {
        "x": 0.0,
        "y": 0.0,
        "z": 0.0,
        "w": 0.0
    },
    "m_DefaultValue": {
        "x": 0.0,
        "y": 0.0,
        "z": 0.0,
        "w": 0.0
    }
}

{
    "m_SGVersion": 0,
    "m_Type": "UnityEditor.ShaderGraph.Vector2MaterialSlot",
    "m_ObjectId": "c283be96211b43bbb4d0e8e691babfdd",
    "m_Id": 1,
    "m_DisplayName": "In Min Max",
    "m_SlotType": 0,
    "m_Hidden": false,
    "m_ShaderOutputName": "InMinMax",
    "m_StageCapability": 3,
    "m_Value": {
        "x": -1.0,
        "y": 1.0
    },
    "m_DefaultValue": {
        "x": 0.0,
        "y": 0.0
    },
    "m_Labels": []
}

{
    "m_SGVersion": 0,
    "m_Type": "UnityEditor.ShaderGraph.DynamicVectorMaterialSlot",
    "m_ObjectId": "c934a5ccccab4273abd6423cdf243099",
    "m_Id": 2,
    "m_DisplayName": "T",
    "m_SlotType": 0,
    "m_Hidden": false,
    "m_ShaderOutputName": "T",
    "m_StageCapability": 3,
    "m_Value": {
        "x": 0.0,
        "y": 0.0,
        "z": 0.0,
        "w": 0.0
    },
    "m_DefaultValue": {
        "x": 0.0,
        "y": 0.0,
        "z": 0.0,
        "w": 0.0
    }
}

{
    "m_SGVersion": 0,
    "m_Type": "UnityEditor.ShaderGraph.MultiplyNode",
    "m_ObjectId": "cb203023f36b4e74bd81e2be2428c1f2",
    "m_Group": {
        "m_Id": ""
    },
    "m_Name": "Multiply",
    "m_DrawState": {
        "m_Expanded": true,
        "m_Position": {
            "serializedVersion": "2",
            "x": -1020.0,
            "y": 12.000011444091797,
            "width": 126.0,
            "height": 118.0
        }
    },
    "m_Slots": [
        {
            "m_Id": "0643af679a3948a5a2c2a3103435993b"
        },
        {
            "m_Id": "0a7a098b9f1b4ae39cde5ce1303ab2f6"
        },
        {
            "m_Id": "d8b8a8f5014a4fb79cd3cb39bd929646"
        }
    ],
    "synonyms": [],
    "m_Precision": 0,
    "m_PreviewExpanded": false,
    "m_PreviewMode": 0,
    "m_CustomColors": {
        "m_SerializableColors": []
    }
}

{
    "m_SGVersion": 0,
    "m_Type": "UnityEditor.ShaderGraph.Vector2MaterialSlot",
    "m_ObjectId": "cd95a0215a8f4270a1a43ca04c3832ee",
    "m_Id": 0,
    "m_DisplayName": "Out",
    "m_SlotType": 1,
    "m_Hidden": false,
    "m_ShaderOutputName": "Out",
    "m_StageCapability": 3,
    "m_Value": {
        "x": 0.0,
        "y": 0.0
    },
    "m_DefaultValue": {
        "x": 0.0,
        "y": 0.0
    },
    "m_Labels": []
}

{
    "m_SGVersion": 0,
    "m_Type": "UnityEditor.Rendering.Universal.ShaderGraph.UniversalUnlitSubTarget",
    "m_ObjectId": "cf02fa6925a9411ba17aba089a75faf9"
}

{
    "m_SGVersion": 0,
    "m_Type": "UnityEditor.ShaderGraph.DynamicVectorMaterialSlot",
    "m_ObjectId": "cf2ebb057778474c90d7fbbed73ed020",
    "m_Id": 0,
    "m_DisplayName": "A",
    "m_SlotType": 0,
    "m_Hidden": false,
    "m_ShaderOutputName": "A",
    "m_StageCapability": 3,
    "m_Value": {
        "x": 0.0,
        "y": 0.0,
        "z": 0.0,
        "w": 0.0
    },
    "m_DefaultValue": {
        "x": 0.0,
        "y": 0.0,
        "z": 0.0,
        "w": 0.0
    }
}

{
    "m_SGVersion": 0,
    "m_Type": "UnityEditor.ShaderGraph.SceneDepthNode",
    "m_ObjectId": "cf8c895e0d244295940acbf4dc860828",
    "m_Group": {
        "m_Id": ""
    },
    "m_Name": "Scene Depth",
    "m_DrawState": {
        "m_Expanded": true,
        "m_Position": {
            "serializedVersion": "2",
            "x": -1228.0001220703125,
            "y": 8.999992370605469,
            "width": 145.0,
            "height": 113.0
        }
    },
    "m_Slots": [
        {
            "m_Id": "37e33d7e1c81440eae80975352a93305"
        },
        {
            "m_Id": "a4d64413ced64d3f88ac93a17e18b6a6"
        }
    ],
    "synonyms": [],
    "m_Precision": 0,
    "m_PreviewExpanded": true,
    "m_PreviewMode": 0,
    "m_CustomColors": {
        "m_SerializableColors": []
    },
    "m_DepthSamplingMode": 2
}

{
    "m_SGVersion": 0,
    "m_Type": "UnityEditor.ShaderGraph.BlockNode",
    "m_ObjectId": "d2f3998543a4491995c2ec4e168f4e69",
    "m_Group": {
        "m_Id": ""
    },
    "m_Name": "SurfaceDescription.Alpha",
    "m_DrawState": {
        "m_Expanded": true,
        "m_Position": {
            "serializedVersion": "2",
            "x": 0.0,
            "y": 0.0,
            "width": 0.0,
            "height": 0.0
        }
    },
    "m_Slots": [
        {
            "m_Id": "ab917efe57454735b56b992332ed9491"
        }
    ],
    "synonyms": [],
    "m_Precision": 0,
    "m_PreviewExpanded": true,
    "m_PreviewMode": 0,
    "m_CustomColors": {
        "m_SerializableColors": []
    },
    "m_SerializedDescriptor": "SurfaceDescription.Alpha"
}

{
    "m_SGVersion": 0,
    "m_Type": "UnityEditor.ShaderGraph.RemapNode",
    "m_ObjectId": "d626c0188c2d44d3b4443465852e6e34",
    "m_Group": {
        "m_Id": ""
    },
    "m_Name": "Remap",
    "m_DrawState": {
        "m_Expanded": true,
        "m_Position": {
            "serializedVersion": "2",
            "x": -457.0,
            "y": 23.999998092651368,
            "width": 186.0,
            "height": 142.0
        }
    },
    "m_Slots": [
        {
            "m_Id": "e0c0ab8708d4425395f75422092859b4"
        },
        {
            "m_Id": "c283be96211b43bbb4d0e8e691babfdd"
        },
        {
            "m_Id": "12b0f58511274f7d905ac38bf2d10c4a"
        },
        {
            "m_Id": "c1eeb35450b445f7acb6ed7fffd85bd9"
        }
    ],
    "synonyms": [],
    "m_Precision": 0,
    "m_PreviewExpanded": false,
    "m_PreviewMode": 0,
    "m_CustomColors": {
        "m_SerializableColors": []
    }
}

{
    "m_SGVersion": 0,
    "m_Type": "UnityEditor.ShaderGraph.DynamicValueMaterialSlot",
    "m_ObjectId": "d8b8a8f5014a4fb79cd3cb39bd929646",
    "m_Id": 2,
    "m_DisplayName": "Out",
    "m_SlotType": 1,
    "m_Hidden": false,
    "m_ShaderOutputName": "Out",
    "m_StageCapability": 3,
    "m_Value": {
        "e00": 0.0,
        "e01": 0.0,
        "e02": 0.0,
        "e03": 0.0,
        "e10": 0.0,
        "e11": 0.0,
        "e12": 0.0,
        "e13": 0.0,
        "e20": 0.0,
        "e21": 0.0,
        "e22": 0.0,
        "e23": 0.0,
        "e30": 0.0,
        "e31": 0.0,
        "e32": 0.0,
        "e33": 0.0
    },
    "m_DefaultValue": {
        "e00": 1.0,
        "e01": 0.0,
        "e02": 0.0,
        "e03": 0.0,
        "e10": 0.0,
        "e11": 1.0,
        "e12": 0.0,
        "e13": 0.0,
        "e20": 0.0,
        "e21": 0.0,
        "e22": 1.0,
        "e23": 0.0,
        "e30": 0.0,
        "e31": 0.0,
        "e32": 0.0,
        "e33": 1.0
    }
}

{
    "m_SGVersion": 0,
    "m_Type": "UnityEditor.ShaderGraph.ScreenPositionMaterialSlot",
    "m_ObjectId": "dcc97bf806614aff8e29a6b67e3bfdd1",
    "m_Id": 0,
    "m_DisplayName": "UV",
    "m_SlotType": 0,
    "m_Hidden": false,
    "m_ShaderOutputName": "UV",
    "m_StageCapability": 3,
    "m_Value": {
        "x": 0.0,
        "y": 0.0,
        "z": 0.0,
        "w": 0.0
    },
    "m_DefaultValue": {
        "x": 0.0,
        "y": 0.0,
        "z": 0.0,
        "w": 0.0
    },
    "m_Labels": [],
    "m_ScreenSpaceType": 0
}

{
    "m_SGVersion": 0,
    "m_Type": "UnityEditor.ShaderGraph.DynamicVectorMaterialSlot",
    "m_ObjectId": "e0c0ab8708d4425395f75422092859b4",
    "m_Id": 0,
    "m_DisplayName": "In",
    "m_SlotType": 0,
    "m_Hidden": false,
    "m_ShaderOutputName": "In",
    "m_StageCapability": 3,
    "m_Value": {
        "x": -1.0,
        "y": -1.0,
        "z": -1.0,
        "w": -1.0
    },
    "m_DefaultValue": {
        "x": 0.0,
        "y": 0.0,
        "z": 0.0,
        "w": 0.0
    }
}

{
    "m_SGVersion": 1,
    "m_Type": "UnityEditor.ShaderGraph.Internal.Vector1ShaderProperty",
    "m_ObjectId": "e0e1a323900241aca6a27467d01dceb7",
    "m_Guid": {
        "m_GuidSerialized": "a796afeb-0cec-4427-b086-f717ce531631"
    },
    "m_Name": "Multiply",
    "m_DefaultRefNameVersion": 1,
    "m_RefNameGeneratedByDisplayName": "Multiply",
    "m_DefaultReferenceName": "_Multiply",
    "m_OverrideReferenceName": "",
    "m_GeneratePropertyBlock": true,
    "m_Precision": 0,
    "overrideHLSLDeclaration": false,
    "hlslDeclarationOverride": 0,
    "m_Hidden": false,
    "m_Value": 0.0,
    "m_FloatType": 0,
    "m_RangeValues": {
        "x": 0.0,
        "y": 1.0
    }
}

{
    "m_SGVersion": 0,
    "m_Type": "UnityEditor.ShaderGraph.LerpNode",
    "m_ObjectId": "e2efa9924f9d415688b77cb4707f4a48",
    "m_Group": {
        "m_Id": ""
    },
    "m_Name": "Lerp",
    "m_DrawState": {
        "m_Expanded": true,
        "m_Position": {
            "serializedVersion": "2",
            "x": -194.00003051757813,
            "y": -3.9999911785125734,
            "width": 130.0,
            "height": 142.0
        }
    },
    "m_Slots": [
        {
            "m_Id": "cf2ebb057778474c90d7fbbed73ed020"
        },
        {
            "m_Id": "11f1d87b8e7a4fbcb9712573c8055ae0"
        },
        {
            "m_Id": "c934a5ccccab4273abd6423cdf243099"
        },
        {
            "m_Id": "a7de9c09a47f43dbb207971bfb90a0bb"
        }
    ],
    "synonyms": [],
    "m_Precision": 0,
    "m_PreviewExpanded": false,
    "m_PreviewMode": 0,
    "m_CustomColors": {
        "m_SerializableColors": []
    }
}

{
    "m_SGVersion": 1,
    "m_Type": "UnityEditor.ShaderGraph.Internal.Vector1ShaderProperty",
    "m_ObjectId": "ed81a641a8dd44bdbc30b44e3067834e",
    "m_Guid": {
        "m_GuidSerialized": "2dce0b39-d79c-46c2-a81b-8938330cd09f"
    },
    "m_Name": "MaxRange",
    "m_DefaultRefNameVersion": 1,
    "m_RefNameGeneratedByDisplayName": "MaxRange",
    "m_DefaultReferenceName": "MaxRange",
    "m_OverrideReferenceName": "",
    "m_GeneratePropertyBlock": true,
    "m_Precision": 0,
    "overrideHLSLDeclaration": false,
    "hlslDeclarationOverride": 0,
    "m_Hidden": false,
    "m_Value": 0.0,
    "m_FloatType": 0,
    "m_RangeValues": {
        "x": 0.0,
        "y": 1.0
    }
}

{
    "m_SGVersion": 0,
    "m_Type": "UnityEditor.ShaderGraph.PositionMaterialSlot",
    "m_ObjectId": "edebf2655bf14301bc36bcfb571aeb72",
    "m_Id": 0,
    "m_DisplayName": "Position",
    "m_SlotType": 0,
    "m_Hidden": false,
    "m_ShaderOutputName": "Position",
    "m_StageCapability": 1,
    "m_Value": {
        "x": 0.0,
        "y": 0.0,
        "z": 0.0
    },
    "m_DefaultValue": {
        "x": 0.0,
        "y": 0.0,
        "z": 0.0
    },
    "m_Labels": [],
    "m_Space": 0
}

{
    "m_SGVersion": 0,
    "m_Type": "UnityEditor.ShaderGraph.Vector2MaterialSlot",
    "m_ObjectId": "f713da5c60cf49129b3f7ef527bb7002",
    "m_Id": 0,
    "m_DisplayName": "Out",
    "m_SlotType": 1,
    "m_Hidden": false,
    "m_ShaderOutputName": "Out",
    "m_StageCapability": 3,
    "m_Value": {
        "x": 0.0,
        "y": 0.0
    },
    "m_DefaultValue": {
        "x": 0.0,
        "y": 0.0
    },
    "m_Labels": []
}

{
    "m_SGVersion": 0,
    "m_Type": "UnityEditor.ShaderGraph.PropertyNode",
    "m_ObjectId": "f7882e0490754c07af9f8c0abf6db016",
    "m_Group": {
        "m_Id": ""
    },
    "m_Name": "Property",
    "m_DrawState": {
        "m_Expanded": true,
        "m_Position": {
            "serializedVersion": "2",
            "x": -1000.0,
            "y": 165.0,
            "width": 118.0,
            "height": 34.0
        }
    },
    "m_Slots": [
        {
            "m_Id": "84b94b0123c94806aeeaa1b890d2ffe3"
        }
    ],
    "synonyms": [],
    "m_Precision": 0,
    "m_PreviewExpanded": true,
    "m_PreviewMode": 0,
    "m_CustomColors": {
        "m_SerializableColors": []
    },
    "m_Property": {
        "m_Id": "e0e1a323900241aca6a27467d01dceb7"
    }
}

