%YAML 1.1
%TAG !u! tag:unity3d.com,2011:
--- !u!1045 &1
EditorBuildSettings:
  m_ObjectHideFlags: 0
  serializedVersion: 2
  m_Scenes:
  - enabled: 1
    path: Assets/Scenes/UI/MainMenu.unity
    guid: 70ed016840acec04781a311bb0d1e18f
  - enabled: 1
    path: Assets/Scenes/UI/BuildUIElements.unity
    guid: a19060a937f924141918c2d1afc821fe
  - enabled: 1
    path: Assets/Scenes/UI/RaceUIElements.unity
    guid: 06fae7a9c62863f42a9d5e4427e37a33
  - enabled: 1
    path: Assets/Scenes/FinalScenes/FinalScene_MainMenu.unity
    guid: b5caeea620d5d7e44b5c6f2104e92007
  - enabled: 1
    path: Assets/Scenes/FinalScenes/FinalScene_Racing.unity
    guid: fc6b45ef97cec9d4ebc05e076cf1491d
  - enabled: 1
    path: Assets/Scenes/FinalScenes/FinalScene_Build.unity
    guid: 29f2594b1ea4a9243a5d79ae434b2605
  - enabled: 1
    path: Assets/Photon/PhotonUnityNetworking/Demos/PunCockpit/PunCockpit-Scene.unity
    guid: 9d6d60c803e244e51ba945a84b88757d
  m_configObjects: {}
